Summarise Per-Location Data Coverage of a GHO Indicator — gho_coverage • DSIR
…
# All countries with any life-expectancy data, since 2010
gho_coverage("WHOSIS_000001", year_from = 2010)
#> Fetching:
#> <https://ghoapi.azureedge.net/api/WHOSIS_000001?$filter=SpatialDimType%20eq%20%27COUNTRY%27%20and%20TimeDim%20ge%202010&$select=SpatialDim,TimeDim>
#> # A tibble: 185 × 4
#>    location year_min year_max n_obs
#>    <chr>       <int>    <int> <int>
#>  1 AFG          2010     2021    36
#>  2 AGO          2010     2021    36
#>  3 ALB          2010     2021    36
#>  4 ARE          2010     2021    36
#>  5 ARG          2010     2021    36
#>  6 ARM          2010     2021    36
#>  7 ATG          2010     2021    36
#>  8 AUS          2010     2021    36
#>  9 AUT          2010     2021    36
#> 10 AZE          2010     2021    36
#> # ℹ 175 more rows
…
