…
## See also

[`gho_indicators()`](https://shanlong-who.github.io/DSIR/reference/gho_indicators.md),
[`gho_dimensions()`](https://shanlong-who.github.io/DSIR/reference/gho_dimensions.md).

## Examples

``` r
# \donttest{
# Country-level data for one indicator
gho_data("NCDMORT3070", spatial_type = "country")
#> Fetching:
#> <https://ghoapi.azureedge.net/api/NCDMORT3070?$filter=SpatialDimType%20eq%20%27COUNTRY%27>
#> # A tibble: 12,210 × 25
#>        Id IndicatorCode SpatialDimType SpatialDim ParentLocationCode TimeDimType
#>     <int> <chr>         <chr>          <chr>      <chr>              <chr>      
#>  1 7.37e6 NCDMORT3070   COUNTRY        ERI        AFR                YEAR       
#>  2 7.37e6 NCDMORT3070   COUNTRY        WSM        WPR                YEAR       
#>  3 7.38e6 NCDMORT3070   COUNTRY        MRT        AFR                YEAR       
#>  4 7.38e6 NCDMORT3070   COUNTRY        PRT        EUR                YEAR       
#>  5 7.38e6 NCDMORT3070   COUNTRY        URY        AMR                YEAR       
#>  6 7.38e6 NCDMORT3070   COUNTRY        HRV        EUR                YEAR       
#>  7 7.38e6 NCDMORT3070   COUNTRY        CHE        EUR                YEAR       
#>  8 7.38e6 NCDMORT3070   COUNTRY        GMB        AFR                YEAR       
#>  9 7.38e6 NCDMORT3070   COUNTRY        NIC        AMR                YEAR       
#> 10 7.38e6 NCDMORT3070   COUNTRY        PER        AMR                YEAR       
#> # ℹ 12,200 more rows
#> # ℹ 19 more variables: ParentLocation <chr>, Dim1Type <chr>, TimeDim <int>,
#> #   Dim1 <chr>, Dim2Type <chr>, Dim2 <chr>, Dim3Type <lgl>, Dim3 <lgl>,
#> #   DataSourceDimType <lgl>, DataSourceDim <lgl>, Value <chr>,
#> #   NumericValue <dbl>, Low <dbl>, High <dbl>, Comments <chr>, Date <chr>,
#> #   TimeDimensionValue <chr>, TimeDimensionBegin <chr>, TimeDimensionEnd <chr>

# Specific countries and years
gho_data("WHOSIS_000001", area = c("FRA", "DEU"), year_from = 2015)
#> Assuming `spatial_type` = "country" since `area` was given.
#> ℹ Pass `spatial_type` explicitly to silence this message.
#> Fetching:
#> <https://ghoapi.azureedge.net/api/WHOSIS_000001?$filter=SpatialDimType%20eq%20%27COUNTRY%27%20and%20SpatialDim%20in%20%28%27FRA%27%2C%27DEU%27%29%20and%20TimeDim%20ge%202015>
#> # A tibble: 42 × 25
#>        Id IndicatorCode SpatialDimType SpatialDim TimeDimType ParentLocationCode
#>     <int> <chr>         <chr>          <chr>      <chr>       <chr>             
#>  1 7.57e6 WHOSIS_000001 COUNTRY        DEU        YEAR        EUR               
#>  2 7.58e6 WHOSIS_000001 COUNTRY        FRA        YEAR        EUR               
#>  3 7.88e6 WHOSIS_000001 COUNTRY        DEU        YEAR        EUR               
#>  4 7.91e6 WHOSIS_000001 COUNTRY        FRA        YEAR        EUR               
#>  5 6.15e5 WHOSIS_000001 COUNTRY        DEU        YEAR        EUR               
#>  6 7.01e5 WHOSIS_000001 COUNTRY        DEU        YEAR        EUR               
#>  7 1.24e6 WHOSIS_000001 COUNTRY        FRA        YEAR        EUR               
#>  8 1.33e6 WHOSIS_000001 COUNTRY        DEU        YEAR        EUR               
#>  9 1.47e6 WHOSIS_000001 COUNTRY        FRA        YEAR        EUR               
#> 10 1.57e6 WHOSIS_000001 COUNTRY        FRA        YEAR        EUR               
#> # ℹ 32 more rows
#> # ℹ 19 more variables: ParentLocation <chr>, Dim1Type <chr>, Dim1 <chr>,
#> #   TimeDim <int>, Dim2Type <lgl>, Dim2 <lgl>, Dim3Type <lgl>, Dim3 <lgl>,
#> #   DataSourceDimType <lgl>, DataSourceDim <lgl>, Value <chr>,
#> #   NumericValue <dbl>, Low <dbl>, High <dbl>, Comments <lgl>, Date <chr>,
#> #   TimeDimensionValue <chr>, TimeDimensionBegin <chr>, TimeDimensionEnd <chr>

# Keep only the both-sexes breakdown, filtered server-side
gho_data("NCDMORT3070", spatial_type = "country", dim1 = "SEX_BTSX")
#> Fetching:
#> <https://ghoapi.azureedge.net/api/NCDMORT3070?$filter=SpatialDimType%20eq%20%27COUNTRY%27%20and%20Dim1%20in%20%28%27SEX_BTSX%27%29>
#> # A tibble: 4,070 × 25
#>        Id IndicatorCode SpatialDimType SpatialDim ParentLocationCode TimeDimType
#>     <int> <chr>         <chr>          <chr>      <chr>              <chr>      
#>  1 7.37e6 NCDMORT3070   COUNTRY        WSM        WPR                YEAR       
#>  2 7.38e6 NCDMORT3070   COUNTRY        PRT        EUR                YEAR       
#>  3 7.38e6 NCDMORT3070   COUNTRY        NIC        AMR                YEAR       
#>  4 7.38e6 NCDMORT3070   COUNTRY        JPN        WPR                YEAR       
#>  5 7.38e6 NCDMORT3070   COUNTRY        IRL        EUR                YEAR       
#>  6 7.38e6 NCDMORT3070   COUNTRY        GRD        AMR                YEAR       
#>  7 7.38e6 NCDMORT3070   COUNTRY        LBR        AFR                YEAR       
#>  8 7.39e6 NCDMORT3070   COUNTRY        SWE        EUR                YEAR       
#>  9 7.39e6 NCDMORT3070   COUNTRY        PRT        EUR                YEAR       
#> 10 7.39e6 NCDMORT3070   COUNTRY        ATG        AMR                YEAR       
#> # ℹ 4,060 more rows
#> # ℹ 19 more variables: ParentLocation <chr>, Dim1Type <chr>, TimeDim <int>,
#> #   Dim1 <chr>, Dim2Type <chr>, Dim2 <chr>, Dim3Type <lgl>, Dim3 <lgl>,
#> #   DataSourceDimType <lgl>, DataSourceDim <lgl>, Value <chr>,
#> #   NumericValue <dbl>, Low <dbl>, High <dbl>, Comments <chr>, Date <chr>,
#> #   TimeDimensionValue <chr>, TimeDimensionBegin <chr>, TimeDimensionEnd <chr>
…
