…
## Examples

``` r
# \donttest{
# All indicators
inds <- gho_indicators()
#> Fetching: <https://ghoapi.azureedge.net/api/Indicator>

# Single keyword
gho_indicators("mortality")
#> Fetching:
#> <https://ghoapi.azureedge.net/api/Indicator?$filter=contains%28tolower%28IndicatorName%29%2C%27mortality%27%29>
#> # A tibble: 32 × 3
#>    IndicatorCode  IndicatorName                                         Language
#>    <chr>          <chr>                                                 <chr>   
#>  1 imr            Infant mortality rate (deaths per 1000 live births)   EN      
#>  2 CHILDMORT5TO14 Mortality rate for 5-14 year-olds (probability of dy… EN      
#>  3 MDG_0000000007 Under-five mortality rate (probability of dying by a… EN      
#>  4 MDG_0000000026 Maternal mortality ratio (per 100 000 live births)    EN      
#>  5 MORTADO        Adolescent mortality rate (per 1 000 age specific co… EN      
#>  6 MDG_0000000001 Infant mortality rate (probability of dying between … EN      
#>  7 MDG_0000000032 Maternal mortality ratio (per 100 000 live births) -… EN      
#>  8 nmr            Neonatal mortality rate (deaths per 1000 live births) EN      
#>  9 SA_0000001472  Alcohol-related injury mortality, per 1,000           EN      
#> 10 SA_0000001473  Alcohol-related disease mortality, per 100,000 (15+ … EN      
#> # ℹ 22 more rows
…
