…
## See also

[`sdg_targets()`](https://shanlong-who.github.io/DSIR/reference/sdg_targets.md),
[`sdg_data()`](https://shanlong-who.github.io/DSIR/reference/sdg_data.md).

## Examples

``` r
# \donttest{
# Full list
sdg_indicators()
#> Fetching: <https://unstats.un.org/sdgs/UNSDGAPIV5/v1/sdg/Indicator/List>
#> # A tibble: 251 × 7
#>    goal  target code  description                             tier  uri   series
#>    <chr> <chr>  <chr> <chr>                                   <chr> <chr> <list>
#>  1 1     1.1    1.1.1 Proportion of the population living be… 1     /v1/… <df>  
#>  2 1     1.2    1.2.1 Proportion of population living below … 1     /v1/… <df>  
#>  3 1     1.2    1.2.2 Proportion of men, women and children … 2     /v1/… <df>  
#>  4 1     1.3    1.3.1 Proportion of population covered by so… 1     /v1/… <df>  
#>  5 1     1.4    1.4.1 Proportion of population living in hou… 1     /v1/… <df>  
#>  6 1     1.4    1.4.2 Proportion of total adult population w… 2     /v1/… <df>  
#>  7 1     1.5    1.5.1 Number of deaths, missing persons and … 1     /v1/… <df>  
#>  8 1     1.5    1.5.2 Direct economic loss attributed to dis… 1     /v1/… <df>  
#>  9 1     1.5    1.5.3 Number of countries that adopt and imp… 1     /v1/… <df>  
#> 10 1     1.5    1.5.4 Proportion of local governments that a… 2     /v1/… <df>  
#> # ℹ 241 more rows
…
