…
The original publication does not split ages 0 and 1-4; the finest first
group is `0-4`. Splits of the first group circulating in some registries
are downstream constructions, not part of the WHO standard.

## See also

[`age_standardize()`](https://shanlong-who.github.io/DSIR/reference/age_standardize.md),
which consumes these weights.

## Examples

``` r
who_std_pop
#> # A tibble: 21 × 4
#>    age_group age_start weight std_million
#>    <chr>         <int>  <dbl>       <int>
#>  1 0-4               0   8.86       88569
#>  2 5-9               5   8.69       86870
#>  3 10-14            10   8.6        85970
#>  4 15-19            15   8.47       84670
#>  5 20-24            20   8.22       82171
#>  6 25-29            25   7.93       79272
#>  7 30-34            30   7.61       76073
#>  8 35-39            35   7.15       71475
#>  9 40-44            40   6.59       65877
#> 10 45-49            45   6.04       60379
#> # ℹ 11 more rows
…
