…
This vignette walks through the typical workflow: looking up countries,
fetching data from GHO and SDG, cleaning the raw response, and producing
publication-style charts and tables.

## WHO Member State metadata

The `who_countries` tibble lists all 194 WHO Member States with their
ISO3, ISO2, UN M49 codes, official names, short names, and WHO region.
For Western Pacific countries, an extra column `is_pic` identifies the
14 Pacific Island Countries.

``` r

who_countries
#> # A tibble: 194 × 7
#>    iso3  iso2  m49_code name_official       name_short         who_region is_pic
#>    <chr> <chr> <chr>    <chr>               <chr>              <chr>      <lgl> 
#>  1 AFG   AF    004      Afghanistan         Afghanistan        EMR        FALSE 
#>  2 ALB   AL    008      Albania             Albania            EUR        FALSE 
#>  3 DZA   DZ    012      Algeria             Algeria            AFR        FALSE 
#>  4 AND   AD    020      Andorra             Andorra            EUR        FALSE 
#>  5 AGO   AO    024      Angola              Angola             AFR        FALSE 
#>  6 ATG   AG    028      Antigua and Barbuda Antigua and Barbu… AMR        FALSE 
#>  7 ARG   AR    032      Argentina           Argentina          AMR        FALSE 
#>  8 ARM   AM    051      Armenia             Armenia            EUR        FALSE 
#>  9 AUS   AU    036      Australia           Australia          WPR        FALSE 
#> 10 AUT   AT    040      Austria             Austria            EUR        FALSE 
#> # ℹ 184 more rows
```
…
Note that `area` accepts long ISO3 vectors — here we fetch all 28 WPR
countries in one call.

### Step 3: Clean the raw response

[`gho_clean()`](https://shanlong-who.github.io/DSIR/reference/gho_clean.md)
drops the internal OData columns and renames what remains, leaving a
compact tibble with `indicator`, `location`, `year`, three optional
dimensions, and `value` / `low` / `high`.

``` r

uhc_clean <- gho_clean(uhc)
uhc_clean
#> # A tibble: 252 × 11
#>    id     location  year dim1  dim2  dim3  value value_num low   high  indicator
#>    <chr>  <chr>    <int> <lgl> <lgl> <lgl> <chr>     <dbl> <lgl> <lgl> <lgl>    
#>  1 UHC_I… AUS       2015 NA    NA    NA    89           89 NA    NA    NA       
#>  2 UHC_I… AUS       2016 NA    NA    NA    89           89 NA    NA    NA       
#>  3 UHC_I… AUS       2017 NA    NA    NA    89           89 NA    NA    NA       
#>  4 UHC_I… AUS       2018 NA    NA    NA    89           89 NA    NA    NA       
#>  5 UHC_I… AUS       2019 NA    NA    NA    89           89 NA    NA    NA       
#>  6 UHC_I… AUS       2020 NA    NA    NA    89           89 NA    NA    NA       
#>  7 UHC_I… AUS       2021 NA    NA    NA    89           89 NA    NA    NA       
#>  8 UHC_I… AUS       2022 NA    NA    NA    89           89 NA    NA    NA       
#>  9 UHC_I… AUS       2023 NA    NA    NA    89           89 NA    NA    NA       
#> 10 UHC_I… BRN       2015 NA    NA    NA    84           84 NA    NA    NA       
#> # ℹ 242 more rows
```
…
# M49 also works (e.g. when copy-pasting codes from sdg_areas())
sdg_data("3.4.1", area = c("608", "250"))
#> Fetching:
#> <https://unstats.un.org/sdgs/UNSDGAPIV5/v1/sdg/Indicator/Data?indicator=3.4.1&pageSize=1000&areaCode=608&areaCode=250&page=1>
#> # A tibble: 42 × 21
#>    goal      target indicator series   seriesDescription seriesCount geoAreaCode
#>    <list>    <list> <list>    <chr>    <chr>             <chr>       <chr>      
#>  1 <chr [1]> <chr>  <chr [1]> SH_DTH_… Mortality rate a… 4326        250        
#>  2 <chr [1]> <chr>  <chr [1]> SH_DTH_… Mortality rate a… 4326        250        
#>  3 <chr [1]> <chr>  <chr [1]> SH_DTH_… Mortality rate a… 4326        250        
#>  4 <chr [1]> <chr>  <chr [1]> SH_DTH_… Mortality rate a… 4326        250        
#>  5 <chr [1]> <chr>  <chr [1]> SH_DTH_… Mortality rate a… 4326        250        
#>  6 <chr [1]> <chr>  <chr [1]> SH_DTH_… Mortality rate a… 4326        250        
#>  7 <chr [1]> <chr>  <chr [1]> SH_DTH_… Mortality rate a… 4326        250        
#>  8 <chr [1]> <chr>  <chr [1]> SH_DTH_… Mortality rate a… 4326        250        
#>  9 <chr [1]> <chr>  <chr [1]> SH_DTH_… Mortality rate a… 4326        250        
#> 10 <chr [1]> <chr>  <chr [1]> SH_DTH_… Mortality rate a… 4326        250        
#> # ℹ 32 more rows
#> # ℹ 14 more variables: geoAreaName <chr>, timePeriodStart <int>, value <chr>,
#> #   valueType <chr>, time_detail <lgl>, timeCoverage <lgl>, upperBound <chr>,
#> #   lowerBound <chr>, basePeriod <lgl>, source <chr>, geoInfoUrl <lgl>,
#> #   footnotes <list>, attributes <df[,1]>, dimensions <df[,1]>
```

``` r

sdg_clean(sdg)
#> # A tibble: 462 × 10
#>    goal  target indicator series  location location_name  year value low   high 
#>    <chr> <chr>  <chr>     <chr>   <chr>    <chr>         <int> <chr> <chr> <chr>
#>  1 3     3.4    3.4.1     SH_DTH… 116      Cambodia       2000 28.1  17.7  37.1 
#>  2 3     3.4    3.4.1     SH_DTH… 116      Cambodia       2000 25.4  15.8  33.9 
#>  3 3     3.4    3.4.1     SH_DTH… 116      Cambodia       2000 31.8  20.2  41.3 
#>  4 3     3.4    3.4.1     SH_DTH… 116      Cambodia       2005 22.5  14.1  30.4 
#>  5 3     3.4    3.4.1     SH_DTH… 116      Cambodia       2005 25.6  16.2  34.2 
#>  6 3     3.4    3.4.1     SH_DTH… 116      Cambodia       2005 29.7  19.1  39.2 
#>  7 3     3.4    3.4.1     SH_DTH… 116      Cambodia       2010 24.4  15.7  33.2 
#>  8 3     3.4    3.4.1     SH_DTH… 116      Cambodia       2010 20.9  13.2  28.5 
#>  9 3     3.4    3.4.1     SH_DTH… 116      Cambodia       2010 29.1  19    39.2 
#> 10 3     3.4    3.4.1     SH_DTH… 116      Cambodia       2015 28.3  19.4  40.5 
#> # ℹ 452 more rows
```
…
