Visualizing indicators • DSIR
…
ncd
#> # A tibble: 432 × 15
#>    source id        indicator location iso3  location_name  year value value_num
#>    <chr>  <chr>     <chr>     <chr>    <chr> <chr>         <int> <chr>     <dbl>
#>  1 gho    NCDMORT3… Probabil… KHM      KHM   Cambodia       2000 27.9       27.9
#>  2 gho    NCDMORT3… Probabil… FJI      FJI   Fiji           2000 30.9       30.9
#>  3 gho    NCDMORT3… Probabil… LAO      LAO   Lao PDR        2000 29.8       29.8
#>  4 gho    NCDMORT3… Probabil… MNG      MNG   Mongolia       2000 33.6       33.6
#>  5 gho    NCDMORT3… Probabil… PHL      PHL   Philippines    2000 29.8       29.8
#>  6 gho    NCDMORT3… Probabil… VNM      VNM   Viet Nam       2000 26.2       26.2
#>  7 gho    NCDMORT3… Probabil… KHM      KHM   Cambodia       2001 27.4       27.4
#>  8 gho    NCDMORT3… Probabil… FJI      FJI   Fiji           2001 31.2       31.2
#>  9 gho    NCDMORT3… Probabil… LAO      LAO   Lao PDR        2001 28.8       28.8
#> 10 gho    NCDMORT3… Probabil… MNG      MNG   Mongolia       2001 33.9       33.9
#> # ℹ 422 more rows
#> # ℹ 6 more variables: low <dbl>, high <dbl>, series <chr>, dim1 <chr>,
#> #   dim2 <chr>, dim3 <chr>
…
